^C:\USERS\MAGSHIMIM\DOWNLOADS\HELPER.CPP|C:\USERS\MAGSHIMIM\SOURCE\REPOS\LESSON_18_SADNA\LESSON_18_SADNA\SOURCE.CPP
C:\USERS\MAGSHIMIM\SOURCE\REPOS\LESSON_18_SADNA\LESSON_18_SADNA\DEBUG\VC141.PDB
C:\USERS\MAGSHIMIM\SOURCE\REPOS\LESSON_18_SADNA\LESSON_18_SADNA\DEBUG\VC141.IDB
C:\USERS\MAGSHIMIM\SOURCE\REPOS\LESSON_18_SADNA\LESSON_18_SADNA\DEBUG\HELPER.OBJ
^C:\USERS\MAGSHIMIM\DOWNLOADS\HELPER.CPP
C:\USERS\MAGSHIMIM\SOURCE\REPOS\LESSON_18_SADNA\LESSON_18_SADNA\DEBUG\VC141.PDB
^C:\USERS\MAGSHIMIM\SOURCE\REPOS\LESSON_18_SADNA\LESSON_18_SADNA\SOURCE.CPP
C:\USERS\MAGSHIMIM\SOURCE\REPOS\LESSON_18_SADNA\LESSON_18_SADNA\DEBUG\VC141.PDB
C:\USERS\MAGSHIMIM\SOURCE\REPOS\LESSON_18_SADNA\LESSON_18_SADNA\DEBUG\VC141.IDB
C:\USERS\MAGSHIMIM\SOURCE\REPOS\LESSON_18_SADNA\LESSON_18_SADNA\DEBUG\SOURCE.OBJ
^C:\USERS\MAGSHIMIM\DOWNLOADS\HELPER.CPP|C:\USERS\MAGSHIMIM\SOURCE\REPOS\LESSON_18_SADNA\LESSON_18_SADNA\MAIN.CPP|C:\USERS\MAGSHIMIM\SOURCE\REPOS\LESSON_18_SADNA\LESSON_18_SADNA\SOURCE.CPP
C:\USERS\MAGSHIMIM\SOURCE\REPOS\LESSON_18_SADNA\LESSON_18_SADNA\DEBUG\VC141.PDB
C:\USERS\MAGSHIMIM\SOURCE\REPOS\LESSON_18_SADNA\LESSON_18_SADNA\DEBUG\VC141.IDB
C:\USERS\MAGSHIMIM\SOURCE\REPOS\LESSON_18_SADNA\LESSON_18_SADNA\DEBUG\MAIN.OBJ
C:\USERS\MAGSHIMIM\SOURCE\REPOS\LESSON_18_SADNA\LESSON_18_SADNA\DEBUG\SOURCE.OBJ
^C:\USERS\MAGSHIMIM\SOURCE\REPOS\LESSON_18_SADNA\LESSON_18_SADNA\MAIN.CPP
C:\USERS\MAGSHIMIM\SOURCE\REPOS\LESSON_18_SADNA\LESSON_18_SADNA\DEBUG\VC141.PDB
C:\USERS\MAGSHIMIM\SOURCE\REPOS\LESSON_18_SADNA\LESSON_18_SADNA\DEBUG\VC141.IDB
C:\USERS\MAGSHIMIM\SOURCE\REPOS\LESSON_18_SADNA\LESSON_18_SADNA\DEBUG\MAIN.OBJ
^C:\USERS\MAGSHIMIM\SOURCE\REPOS\LESSON_18_SADNA\LESSON_18_SADNA\HELPER.CPP|C:\USERS\MAGSHIMIM\SOURCE\REPOS\LESSON_18_SADNA\LESSON_18_SADNA\MAIN.CPP|C:\USERS\MAGSHIMIM\SOURCE\REPOS\LESSON_18_SADNA\LESSON_18_SADNA\SOURCE.CPP
C:\USERS\MAGSHIMIM\SOURCE\REPOS\LESSON_18_SADNA\LESSON_18_SADNA\DEBUG\VC141.PDB
C:\USERS\MAGSHIMIM\SOURCE\REPOS\LESSON_18_SADNA\LESSON_18_SADNA\DEBUG\VC141.IDB
C:\USERS\MAGSHIMIM\SOURCE\REPOS\LESSON_18_SADNA\LESSON_18_SADNA\DEBUG\HELPER.OBJ
C:\USERS\MAGSHIMIM\SOURCE\REPOS\LESSON_18_SADNA\LESSON_18_SADNA\DEBUG\MAIN.OBJ
C:\USERS\MAGSHIMIM\SOURCE\REPOS\LESSON_18_SADNA\LESSON_18_SADNA\DEBUG\SOURCE.OBJ
^C:\USERS\MAGSHIMIM\SOURCE\REPOS\LESSON_18_SADNA\LESSON_18_SADNA\HELPER.CPP
C:\USERS\MAGSHIMIM\SOURCE\REPOS\LESSON_18_SADNA\LESSON_18_SADNA\DEBUG\VC141.PDB
^C:\USERS\MAGSHIMIM\SOURCE\REPOS\LESSON_18_SADNA\LESSON_18_SADNA\MAIN.CPP|C:\USERS\MAGSHIMIM\SOURCE\REPOS\LESSON_18_SADNA\LESSON_18_SADNA\SOURCE.CPP
C:\USERS\MAGSHIMIM\SOURCE\REPOS\LESSON_18_SADNA\LESSON_18_SADNA\DEBUG\VC141.PDB
C:\USERS\MAGSHIMIM\SOURCE\REPOS\LESSON_18_SADNA\LESSON_18_SADNA\DEBUG\VC141.IDB
C:\USERS\MAGSHIMIM\SOURCE\REPOS\LESSON_18_SADNA\LESSON_18_SADNA\DEBUG\SOURCE.OBJ
